[INFO ] 2021-06-27 20:31:30.019 [main] FlightSearching - spice jet url is opening
[INFO ] 2021-06-27 20:31:30.399 [main] FlightSearching - departure edit box clicked
[INFO ] 2021-06-27 20:31:30.659 [main] FlightSearching - departure location selected
[INFO ] 2021-06-27 20:31:31.562 [main] FlightSearching - arrival location selected
[INFO ] 2021-06-27 20:31:34.542 [main] FlightSearching - journey date selected
[INFO ] 2021-06-27 20:32:59.536 [main] FlightSearching - spice jet url is opening
[INFO ] 2021-06-27 20:33:00.332 [main] FlightSearching - departure edit box clicked
[INFO ] 2021-06-27 20:33:00.597 [main] FlightSearching - departure location selected
[INFO ] 2021-06-27 20:33:01.382 [main] FlightSearching - arrival location selected
[INFO ] 2021-06-27 20:33:04.563 [main] FlightSearching - journey date selected
[INFO ] 2021-06-27 21:03:46.783 [TestNG-tests-2] FlightSearchingUnHappy - spice jet url is opening
[INFO ] 2021-06-27 21:03:46.783 [TestNG-tests-1] FlightSearchingHappy - spice jet url is opening
[INFO ] 2021-06-27 21:03:51.701 [TestNG-tests-2] FlightSearchingUnHappy - departure edit box clicked
[INFO ] 2021-06-27 21:03:51.701 [TestNG-tests-1] FlightSearchingHappy - departure edit box clicked
[INFO ] 2021-06-27 21:03:52.074 [TestNG-tests-1] FlightSearchingHappy - departure location selected
[INFO ] 2021-06-27 21:03:52.081 [TestNG-tests-2] FlightSearchingUnHappy - departure location selected
[INFO ] 2021-06-27 21:03:53.046 [TestNG-tests-2] FlightSearchingUnHappy - arrival location selected
[INFO ] 2021-06-27 21:03:53.053 [TestNG-tests-1] FlightSearchingHappy - arrival location selected
[INFO ] 2021-06-27 21:03:56.323 [TestNG-tests-2] FlightSearchingUnHappy - journey date selected
[INFO ] 2021-06-27 21:03:56.391 [TestNG-tests-1] FlightSearchingHappy - journey date selected
[INFO ] 2021-06-27 21:04:01.583 [TestNG-tests-1] FlightSearchingHappy - departure edit box clicked
[INFO ] 2021-06-27 21:04:02.177 [TestNG-tests-1] FlightSearchingHappy - departure location selected
[INFO ] 2021-06-27 21:04:03.013 [TestNG-tests-1] FlightSearchingHappy - arrival location selected
[INFO ] 2021-06-27 21:04:08.282 [TestNG-tests-1] FlightSearchingHappy - journey date selected
[INFO ] 2021-06-27 21:06:38.847 [TestNG-tests-1] FlightSearchingHappy - spice jet url is opening
[INFO ] 2021-06-27 21:06:38.847 [TestNG-tests-2] FlightSearchingUnHappy - spice jet url is opening
[INFO ] 2021-06-27 21:06:40.760 [TestNG-tests-1] FlightSearchingHappy - departure edit box clicked
[INFO ] 2021-06-27 21:06:40.782 [TestNG-tests-2] FlightSearchingUnHappy - departure edit box clicked
[INFO ] 2021-06-27 21:06:41.309 [TestNG-tests-1] FlightSearchingHappy - departure location selected
[INFO ] 2021-06-27 21:06:41.374 [TestNG-tests-2] FlightSearchingUnHappy - departure location selected
[INFO ] 2021-06-27 21:06:42.490 [TestNG-tests-1] FlightSearchingHappy - arrival location selected
[INFO ] 2021-06-27 21:06:42.538 [TestNG-tests-2] FlightSearchingUnHappy - arrival location selected
[INFO ] 2021-06-27 21:06:45.965 [TestNG-tests-1] FlightSearchingHappy - journey date selected
[INFO ] 2021-06-27 21:06:46.118 [TestNG-tests-2] FlightSearchingUnHappy - journey date selected
[INFO ] 2021-06-27 21:11:52.478 [TestNG-tests-1] FlightSearchingHappy - spice jet url is opening
[INFO ] 2021-06-27 21:11:52.478 [TestNG-tests-2] FlightSearchingUnHappy - spice jet url is opening
[INFO ] 2021-06-27 21:11:54.837 [TestNG-tests-1] FlightSearchingHappy - departure edit box clicked
[INFO ] 2021-06-27 21:11:54.837 [TestNG-tests-2] FlightSearchingUnHappy - departure edit box clicked
[INFO ] 2021-06-27 21:11:55.319 [TestNG-tests-2] FlightSearchingUnHappy - departure location selected
[INFO ] 2021-06-27 21:11:55.670 [TestNG-tests-1] FlightSearchingHappy - departure location selected
[INFO ] 2021-06-27 21:11:56.367 [TestNG-tests-2] FlightSearchingUnHappy - arrival location selected
[INFO ] 2021-06-27 21:11:56.558 [TestNG-tests-1] FlightSearchingHappy - arrival location selected
[INFO ] 2021-06-27 21:12:00.432 [TestNG-tests-2] FlightSearchingUnHappy - journey date selected
[INFO ] 2021-06-27 21:12:00.582 [TestNG-tests-1] FlightSearchingHappy - journey date selected
[INFO ] 2021-06-27 21:12:40.644 [TestNG-tests-1] FlightSearchingHappy - searching flights
[INFO ] 2021-06-27 21:12:41.150 [TestNG-tests-1] FlightSearchingHappy - Cheap Air Tickets Online, International Flights to India, Cheap International Flight Deals | SpiceJet Airlines
[INFO ] 2021-06-27 21:12:41.169 [TestNG-tests-2] FlightSearchingUnHappy - searching flights
[INFO ] 2021-06-27 21:12:41.185 [TestNG-tests-2] FlightSearchingUnHappy - Cheap Air Tickets Online, International Flights to India, Cheap International Flight Deals | SpiceJet Airlines
