Y:\eclipse-workspace\AutomationSeleniumTesting\src\main\java\amazonPageObjects\ProductDetailPage.java
Y:\eclipse-workspace\AutomationSeleniumTesting\src\main\java\spiceJetObjects\SpicejetLoginPage.java
Y:\eclipse-workspace\AutomationSeleniumTesting\src\main\java\actionTemplates\ActionSkeletons.java
Y:\eclipse-workspace\AutomationSeleniumTesting\src\main\java\resources\ExtentReporter.java
Y:\eclipse-workspace\AutomationSeleniumTesting\src\main\java\actionTemplates\ActionDefination.java
Y:\eclipse-workspace\AutomationSeleniumTesting\src\main\java\amazonPageObjects\AmazonProductListingPage.java
Y:\eclipse-workspace\AutomationSeleniumTesting\src\main\java\spiceJetObjects\SpicejetHomepage.java
Y:\eclipse-workspace\AutomationSeleniumTesting\src\main\java\amazonPageObjects\AmazonHomePage.java
Y:\eclipse-workspace\AutomationSeleniumTesting\src\main\java\frameworkObjectUtilities\ObjectController.java
